module github.com/CharlesWinter/ships

go 1.18

require (
	github.com/golang/mock v1.6.0
	github.com/gorilla/mux v1.8.0
	honnef.co/go/tools v0.3.0
)

require (
	github.com/BurntSushi/toml v0.4.1 // indirect
	golang.org/x/exp/typeparams v0.0.0-20220218215828-6cf2b201936e // indirect
	golang.org/x/mod v0.6.0-dev.0.20220106191415-9b9b3d81d5e3 // indirect
	golang.org/x/sys v0.0.0-20211019181941-9d821ace8654 // indirect
	golang.org/x/tools v0.1.11-0.20220316014157-77aa08bb151a // indirect
	golang.org/x/xerrors v0.0.0-20200804184101-5ec99f83aff1 // indirect
)
